{
  "Bloomberg Adria": {
    "domain": "bloombergadria.com",
    "allow_cookies": 1,
    "block_js_inline": "\\.bloombergadria\\.com\\/.+\\/news\\/",
    "cs_code": "[{\"cond\":\"article[style]\",\"rm_attrib\":\"style\"}]",
    "new_site": 1
  },
  "DH Les Sports+": {
    "domain": "dhnet.be",
    "allow_cookies": 1,
    "useragent": "googlebot"
  },
  "El Tiempo": {
    "domain": "eltiempo.com",
    "allow_cookies": 1,
    "block_regex": "\\.tinypass\\.com",
    "cs_code": "[{\"cond\":\"div.modulos\",\"rm_class\":\"modulos\"}]"
  },
  "Grupo Abril": {
    "domain": "abril.com.br",
    "allow_cookies": 1,
    "block_regex": "(\\.abril\\.com\\.br\\/.+\\/abril-paywall\\/|cdn\\.ampproject\\.org\\/v\\d\\/amp-subscriptions-.+\\.js)"
  },
  "Harper's Magazine": {
    "domain": "harpers.org",
    "block_regex": "\\/harpers\\.org\\/wp-content\\/themes\\/timber\\/static\\/js\\/modal.+\\.js"
  },
  "Inkl": {
    "domain": "inkl.com",
    "cs_code": "[{\"cond\":\"div.paywall\",\"rm_attrib\":\"class\"}]"
  },
  "L'Informé": {
    "domain": "linforme.com",
    "allow_cookies": 1,
    "useragent": "googlebot"
  },
  "Le Point (cached articles only)": {
    "domain": "lepoint.fr",
    "allow_cookies": 1,
    "block_regex": "\\.poool\\.fr\\/",
    "ld_google_webcache": "div.info-paywall|div.ArticleBody",
    "new_site": 1
  },
  "LosAndes.com.ar": {
    "domain": "losandes.com.ar",
    "allow_cookies": 1,
    "block_regex": "cdn\\.lavoz\\.com\\.ar\\/sites\\/.+\\/paywall\\/losandes\\/pw\\.js"
  },
  "Mediahuis Noord": {
    "domain": "###_nl_mediahuis_noord",
    "group": [
      "dvhn.nl",
      "lc.nl"
    ],
    "allow_cookies": 1,
    "block_regex": "\\.evolok\\.net\\/",
    "exception": [{
        "domain": "dvhn.nl",
        "allow_cookies": 1,
        "block_regex": "(\\.evolok\\.net\\/|\\.ndcmediagroep\\.nl\\/js\\/evolok\\/)"
      }, {
        "domain": "lc.nl",
        "allow_cookies": 1,
        "block_regex": "(\\.evolok\\.net\\/|\\.ndcmediagroep\\.nl\\/js\\/evolok\\/)"
      }
    ]
  },
  "New Scientist": {
    "domain": "newscientist.com",
    "allow_cookies": 1,
    "ld_google_webcache": "#subscription-barrier|div.article-body,article"
  },
  "NK News (free articles only)": {
    "domain": "nknews.org",
    "remove_cookies_select_drop": ["issuem_lp", "issuem_lp_kp"]
  },
  "Quartz": {
    "domain": "qz.com",
    "allow_cookies": 1,
    "block_regex": "\\.kinja-static\\.com\\/assets\\/.+\\/regwalled-content.+\\.js"
  },
  "Quotidiano.net (+ regional)": {
    "domain": "###_it_quotidiano",
    "group": [
      "ilgiorno.it",
      "ilrestodelcarlino.it",
      "iltelegrafolivorno.it",
      "lanazione.it",
      "quotidiano.net"
    ],
    "allow_cookies": 1,
    "block_regex": "(\\.tinypass\\.com\\/|cdn\\.ampproject\\.org\\/v\\d\\/amp-access-.+\\.js)",
    "amp_redirect": "div[data-testid='paywall-container'], div[class^='Paywall_paywall_']"
  },
  "The Atlanta Journal-Constitution": {
    "domain": "ajc.com",
    "allow_cookies": 1,
    "block_regex": "(\\.ajc\\.com\\/prod\\/ajc\\/loader\\.min\\.js|cdn\\.ampproject\\.org\\/v\\d\\/amp-access-.+\\.js)"
  }
}
